[
    {"bidsname": "FLAIR", "series_description": "AX T2 FLAIR"},
    {"bidsname": "FLAIR", "series_description": "FLAIR_AXIAL"},
    {"bidsname": "FLAIR", "series_description": "Axial T2-FLAIR"},
    {"bidsname": "FLAIR", "series_description": "Axial FLAIR 3mm"},
    {"bidsname": "FLAIR", "series_description": "FLAIR"},
    {"bidsname": "FLAIR", "series_description": "Axial T2-FLAIR"},
    {"bidsname": "FLAIR", "series_description": "FLAIR"},
    {"bidsname": "FLASH", "series_description": "FLASH"},
    {"bidsname": "T1w", "series_description": "Sag T1 SE"},
    {"bidsname": "T1w", "series_description": "SAG MPRAGE"},
    {"bidsname": "T1w", "series_description": "Ax T1 SE"},
    {"bidsname": "T1w", "series_description": "t1_mpr_1mm_p2_pos50_S2_DIS2D"},
    {"bidsname": "T1w", "series_description": "t1_mpr_1mm_p2"},
    {"bidsname": "T1w", "series_description": "t1_mpr_1mm_p2_pos50"},
    {"bidsname": "T1w", "series_description": "t1_mpr_ns_sag"},
    {"bidsname": "T1w", "series_description": "SAG 3D FSPGR"},
    {"bidsname": "T1w", "series_description": "AX T1"},
    {"bidsname": "T1w", "series_description": "MPRAGE GRAPPA2"},
    {"bidsname": "T1w", "series_description": "SAG 3D T1 FSPGR"},
    {"bidsname": "T1w", "series_description": "Sagittal 3D Accelerated T1"},
    {"bidsname": "T1w", "series_description": "MPRAGE"},
    {"bidsname": "T1w", "series_description": "MPRAGE"},
    {"bidsname": "T1w", "series_description": "t1_se_sag_POST"},
    {"bidsname": "T1w", "series_description": "Sagittal MP-Rage"},
    {"bidsname": "T1w", "series_description": "t1_se_tra_POST"},
    {"bidsname": "T1w", "series_description": "t1_mpr_1mm_p2"},
    {"bidsname": "T1w", "series_description": "t1_mprage_sag_isoWU"},
    {"bidsname": "T2star", "series_description": "T2 star ep2d_fid_RR"},
    {"bidsname": "T2star", "series_description": "3-pl T2* FGRE"},
    {"bidsname": "T2star", "series_description": "Axial T2 Star"},
    {"bidsname": "T2star", "series_description": "T2 STAR EP2D_FID"},
    {"bidsname": "T2star", "series_description": "T2_star"},
    {"bidsname": "T2star", "series_description": "AXIAL_T2_STAR"},
    {"bidsname": "T2star", "series_description": "3-pl T2* FGRE"},
    {"bidsname": "T2star", "series_description": "AX T2 STAR"},
    {"bidsname": "T2w", "series_description": "AX T2"},
    {"bidsname": "T2w", "series_description": "T2"},
    {"bidsname": "T2w", "series_description": "T2_SPC_1MM_P2"},
    {"bidsname": "T2w", "series_description": "3DT2"},
    {"bidsname": "T2w", "series_description": "T2_Blade_Tra"},
    {"bidsname": "T2w", "series_description": "3DT2"},
    {"bidsname": "T2w", "series_description": "t2_spc_sag_p2_isoWU"},
    {"bidsname": "TSE", "series_description": "tse_p3"},
    {"bidsname": "TSE", "series_description": "TSE"},
    {"bidsname": "acq-TOF_angio", "series_description": "TOF_3D_multi-slab"},
    {"bidsname": "acq-TOF_angio", "series_description": "somersault"},
    {"bidsname": "acq-TOF_angio", "series_description": "COW  exorcist"},
    {"bidsname": "acq-TOF_angio", "series_description": "TOF_3D_multi-slab-POCSon"},
    {"bidsname": "acq-TOF_angio", "series_description": "TOF_3D_multi-slab (SIEMENS)"},
    {"bidsname": "acq-TOF_angio", "series_description": "tof somersault"},
    {"bidsname": "acq-TOF_angio", "series_description": "tof exorcist"},
    {"bidsname": "acq-TOF_angio", "series_description": "TOF_3D_multi_slab_non/con_RR"},
    {"bidsname": "acq-TOF_angio", "series_description": "TOF_3D_multi_slab_non/con"},
    {"bidsname": "acq-TOF_angio", "series_description": "exorcist"},
    {"bidsname": "acq-TSE_T2w", "series_description": "t2_tse_tra_p2WU"},
    {"bidsname": "acq-TSE_T2w", "series_description": "t2_tse_tra"},
    {"bidsname": "acq-TSE_T2w", "series_description": "Axial T2 TSE with Fat Sat"},
    {"bidsname": "asl", "series_description": "ep2d_tra_pasl_black-ances"},
    {"bidsname": "asl", "series_description": "relCBF"},
    {"bidsname": "asl", "series_description": "ASL Gp1 100% gap 10 slices"},
    {"bidsname": "asl", "series_description": "ASL GpII 100% gap 10 slices"},
    {"bidsname": "asl", "series_description": "ASL GpII 100% gap 10 slices_RR"},
    {"bidsname": "asl", "series_description": "ASL1 black-ances version"},
    {"bidsname": "asl", "series_description": "Axial ASL (EYES OPEN)"},
    {"bidsname": "asl", "series_description": "ASL2 black-ances version"},
    {"bidsname": "asl", "series_description": "ASL Gp1 100% gap 10 slices"},
    {"bidsname": "asl", "series_description": "ASL PERFUSION"},
    {"bidsname": "asl", "series_description": "ASL GpII 100% gap 10 slices"},
    {"bidsname": "asl", "series_description": "ep2d_pcasl_PHC_1200ms"},
    {"bidsname": "asl", "series_description": "Axial ASL (EYES OPEN)"},
    {"bidsname": "asl", "series_description": "ASL Gp1 100% gap 10 slices_RR"},
    {"bidsname": "fieldmap", "series_description": "gre_field_mapping_bold"},
    {"bidsname": "fieldmap", "series_description": "gre_field_mapping"},
    {"bidsname": "fieldmap", "series_description": "Field Mapping"},
    {"bidsname": "fieldmap", "series_description": "Field_mapping"},
    {"bidsname": "fieldmap", "series_description": "gre_field_mapping_boldcopy"},
    {"bidsname": "minIP", "series_description": "MIP_IMAGES(SW)"},
    {"bidsname": "minIP", "series_description": "MIP_IMAGES"},
    {"bidsname": "part-mag_GRE", "series_description": "Mag_Images"},
    {"bidsname": "part-phase_GRE", "series_description": "Pha_Images"},
    {"bidsname": "swi", "series_description": "SWI_IMAGES"},
    {"bidsname": "task-rest_bold", "series_description": "ep2d_bold_connect"},
    {"bidsname": "task-rest_bold", "series_description": "resting state fMRI_New"},
    {"bidsname": "task-rest_bold", "series_description": "ep2d_boldWU (EYES OPEN)"},
    {"bidsname": "task-rest_bold", "series_description": "ep2d_boldWU"},
    {"bidsname": "task-rest_bold", "series_description": "Ax rsfMRI P-A"},
    {"bidsname": "task-rest_bold", "series_description": "Ax rsfMRI A-P"},
    {"bidsname": "task-rest_bold", "series_description": "ep2d_bold_test"},
    {"bidsname": "task-rest_bold", "series_description": "DIAN rsfMRI"},
    {"bidsname": "task-rest_bold", "series_description": "ep2d_bold_connect_RR"},
    {"bidsname": "task-rest_bold", "series_description": "ep2d_bold_connect"},
    {"bidsname": "task-rest_bold", "series_description": "bas_ep2d_bold_connect"},
    {"bidsname": "task-rest_bold", "series_description": "BOLD"}
]
